2017-01-01 22:20:00<br />,1.9,-6.0,12:20 AM
2017-01-01 22:50:00<br />,5.6,-7.0,12:50 AM
2017-01-01 23:20:00<br />,1.9,-6.0,1:20 AM
2017-01-01 23:50:00<br />,3.7,-6.0,1:50 AM
2017-01-02 00:20:00<br />,Calm,-5.0,2:20 AM
2017-01-02 00:50:00<br />,Calm,-5.0,2:50 AM
2017-01-02 01:20:00<br />,3.7,-5.0,3:20 AM
2017-01-02 01:50:00<br />,1.9,-4.0,3:50 AM
2017-01-02 02:20:00<br />,3.7,-4.0,4:20 AM
2017-01-02 02:50:00<br />,3.7,-3.0,4:50 AM
2017-01-02 03:20:00<br />,3.7,-3.0,5:20 AM
2017-01-02 03:50:00<br />,5.6,-3.0,5:50 AM
2017-01-02 04:20:00<br />,5.6,-3.0,6:20 AM
2017-01-02 04:50:00<br />,11.1,-3.0,6:50 AM
2017-01-02 05:20:00<br />,13.0,-2.0,7:20 AM
2017-01-02 05:50:00<br />,13.0,-3.0,7:50 AM
2017-01-02 06:20:00<br />,13.0,-3.0,8:20 AM
2017-01-02 06:50:00<br />,11.1,-3.0,8:50 AM
2017-01-02 07:20:00<br />,13.0,-3.0,9:20 AM
2017-01-02 07:50:00<br />,9.3,-3.0,9:50 AM
2017-01-02 08:20:00<br />,11.1,-3.0,10:20 AM
2017-01-02 08:50:00<br />,11.1,-3.0,10:50 AM
2017-01-02 09:20:00<br />,11.1,-3.0,11:20 AM
2017-01-02 09:50:00<br />,9.3,-2.0,11:50 AM
2017-01-02 10:20:00<br />,7.4,-2.0,12:20 PM
2017-01-02 10:50:00<br />,9.3,-2.0,12:50 PM
2017-01-02 11:20:00<br />,7.4,-3.0,1:20 PM
2017-01-02 11:50:00<br />,5.6,-3.0,1:50 PM
2017-01-02 12:20:00<br />,5.6,-3.0,2:20 PM
2017-01-02 12:50:00<br />,13.0,-2.0,2:50 PM
2017-01-02 13:20:00<br />,14.8,-2.0,3:20 PM
2017-01-02 13:50:00<br />,16.7,-3.0,3:50 PM
2017-01-02 14:20:00<br />,11.1,-3.0,4:20 PM
2017-01-02 14:50:00<br />,11.1,-3.0,4:50 PM
2017-01-02 15:20:00<br />,13.0,-3.0,5:20 PM
2017-01-02 15:50:00<br />,11.1,-3.0,5:50 PM
2017-01-02 16:20:00<br />,9.3,-3.0,6:20 PM
2017-01-02 16:50:00<br />,11.1,-4.0,6:50 PM
2017-01-02 17:20:00<br />,5.6,-4.0,7:20 PM
2017-01-02 17:50:00<br />,9.3,-4.0,7:50 PM
2017-01-02 18:20:00<br />,9.3,-5.0,8:20 PM
2017-01-02 18:50:00<br />,9.3,-5.0,8:50 PM
2017-01-02 19:20:00<br />,9.3,-5.0,9:20 PM
2017-01-02 19:50:00<br />,9.3,-6.0,9:50 PM
2017-01-02 20:20:00<br />,7.4,-6.0,10:20 PM
2017-01-02 20:50:00<br />,7.4,-6.0,10:50 PM
2017-01-02 21:20:00<br />,5.6,-6.0,11:20 PM
2017-01-02 21:50:00<br />,5.6,-7.0,11:50 PM
